[
    {
        "id": 1784087153,
        "status": "failed",
        "stage": "deploy",
        "name": "child pipeline",
        "ref": "main",
        "tag": false,
        "coverage": null,
        "allow_failure": false,
        "created_at": "2021-11-15T16:07:53.060Z",
        "started_at": null,
        "finished_at": "2021-11-15T16:10:53.136Z",
        "duration": null,
        "queued_duration": 3243838.776475413,
        "user": {
            "id": 6383118,
            "username": "shimulch",
            "name": "Shimul Chowdhury",
            "state": "active",
            "avatar_url": "https://gitlab.com/uploads/-/system/user/avatar/6383118/avatar.png",
            "web_url": "https://gitlab.com/shimulch",
            "created_at": "2020-07-08T00:33:45.319Z",
            "bio": "",
            "location": "",
            "public_email": "",
            "skype": "",
            "linkedin": "",
            "twitter": "",
            "website_url": "",
            "organization": "",
            "job_title": "",
            "pronouns": "",
            "bot": false,
            "work_information": null,
            "followers": 0,
            "following": 0,
            "local_time": "11:12 AM"
        },
        "commit": {
            "id": "9894e2bc5198af8ac39af6f12d6bb3a96004254e",
            "short_id": "9894e2bc",
            "created_at": "2021-11-15T16:07:52.000+00:00",
            "parent_ids": [
                "b68e91bfe74a899a2a1d362ae54ebb27ef45c126",
                "e0ebf73374f03e83dbc02fa35b82792c5a0fcf13"
            ],
            "title": "Merge branch 'shimulch/bb-4779-theme-overrides' into 'main'",
            "message": "Merge branch 'shimulch/bb-4779-theme-overrides' into 'main'\n\n[BB-4779] Introduce grove.yml and enable image build\n\nSee merge request opencraft/dev/grove-template!9",
            "author_name": "Shimul Chowdhury",
            "author_email": "shimul@opencraft.com",
            "authored_date": "2021-11-15T16:07:52.000+00:00",
            "committer_name": "Shimul Chowdhury",
            "committer_email": "shimul@opencraft.com",
            "committed_date": "2021-11-15T16:07:52.000+00:00",
            "trailers": {},
            "web_url": "https://gitlab.com/opencraft/dev/grove-template/-/commit/9894e2bc5198af8ac39af6f12d6bb3a96004254e"
        },
        "pipeline": {
            "id": 409204040,
            "iid": 96,
            "project_id": 24377526,
            "sha": "9894e2bc5198af8ac39af6f12d6bb3a96004254e",
            "ref": "main",
            "status": "failed",
            "source": "push",
            "created_at": "2021-11-15T16:07:53.035Z",
            "updated_at": "2021-11-15T16:10:53.207Z",
            "web_url": "https://gitlab.com/opencraft/dev/grove-template/-/pipelines/409204040"
        },
        "failure_reason": "unknown_failure",
        "web_url": "https://gitlab.com/opencraft/dev/grove-template/-/jobs/1784087153",
        "downstream_pipeline": {
            "id": 409204611,
            "iid": 97,
            "project_id": 24377526,
            "sha": "9894e2bc5198af8ac39af6f12d6bb3a96004254e",
            "ref": "main",
            "status": "failed",
            "source": "parent_pipeline",
            "created_at": "2021-11-15T16:08:28.868Z",
            "updated_at": "2021-11-15T16:10:53.048Z",
            "web_url": "https://gitlab.com/opencraft/dev/grove-template/-/pipelines/409204611"
        }
    }
]
